ISSS608-VAA - Take-home Exercise 2
…
pacman::p_load(tidyverse)
pop_data <- read_csv("data/respopagesextod2022.csv")

Preparing the Data

As mentioned previously, it was not clear from the data viz why the nine planning areas shown were selected. However, when we examine the data, we find that they correspond with the top nine planning areas in terms of total resident count, as shown below:

pop_data %>%                                        
  group_by(PA) %>%                      
  summarise_at(vars(Pop),               
               list(Total_Residents = sum)) %>%
  arrange(desc(Total_Residents)) 

# A tibble: 55 × 2
   PA            Total_Residents
   <chr>                   <dbl>
 1 Bedok                  278640
 2 Tampines               265690
 3 Jurong West            258540
 4 Sengkang               253120
 5 Woodlands              252510
 6 Hougang                227540
 7 Yishun                 222960
 8 Choa Chu Kang          190330
 9 Punggol                186270
10 Bukit Batok            165160
# … with 45 more rows
…
